<svg width="500" height="500" xmlns="http://www.w3.org/2000/svg">
 <!-- Created with Method Draw - http://github.com/duopixel/Method-Draw/ -->
 <g>
  <title>dent_bas</title>
<path d="m212.413729,292.225194c-0.344818,0 -0.344818,-0.344849 -0.344818,-0.689667c0,-0.344818 0,-0.689667 0,-1.034485c0,-0.344818 0,-0.344818 0,-0.689636c0,-0.344849 0,-0.689667 0,-1.034485c0,-0.344849 0.100998,-0.445831 0.344818,-0.689667c0.24382,-0.243835 0,-0.689667 0,-1.034485c0,-0.344818 0,-0.689667 0,-1.034485c0,-0.689636 0,-1.034485 0,-1.034485c0,-0.344818 0,-0.689636 0,-1.034485c0,-0.344818 0,-0.689636 0,-1.379303c0,-0.344818 0,-0.689667 0,-1.034485c0,-0.344818 0,-0.689636 0,-1.034485c0,-0.344818 0,-0.689636 0,-1.034485c0,-0.344818 0,-0.689636 0,-1.034485c0,-0.344818 0,-0.689636 0,-1.034485c0,0 0,-0.344818 0,-0.689636c0,-0.344818 0,-0.689667 0,-1.034485c0,-0.344818 0.158203,-0.583954 0.344833,-1.034485c0.131958,-0.318573 0.344818,-0.689667 0.344818,-1.034485c0,-0.344818 -0.131973,-0.715881 0,-1.034485c0.18663,-0.450531 0.080902,-0.742126 0.344833,-1.379303c0.18663,-0.450531 0.445831,-0.445831 0.689651,-0.689667c0.24382,-0.243835 -0.131973,-0.715881 0,-1.034485c0.18663,-0.450531 0.344833,-0.689636 0.344833,-1.034454c0,-0.344849 0.344818,-0.344849 0.344818,-0.689667c0,-0.344818 0.503036,-0.583954 0.689667,-1.034485c0.263931,-0.637177 0.344818,-1.034485 0.344818,-1.034485c0,-0.344818 0.344833,-0.344818 0.344833,-0.689667c0,-0.344818 0.212891,-0.715881 0.344833,-1.034454c0.186615,-0.450562 0.445816,-0.445831 0.689651,-0.689667c0.24382,-0.243835 -0.142853,-0.546814 0.344818,-1.034485c0.243835,-0.243835 0.503052,-0.239105 0.689667,-0.689667c0.131958,-0.318573 0.100998,-0.445801 0.344818,-0.689636c0.487671,-0.487671 0.23912,-0.84787 0.689651,-1.034485c0.318588,-0.131958 0.238815,-0.408966 0.689667,-1.034485c0.285126,-0.395599 0.725311,-0.657349 1.034485,-1.034485c0.788239,-0.961487 1.03447,-1.034485 1.379303,-1.724152c0.344833,-0.689636 0.790649,-1.135468 1.034485,-1.379303c0.24382,-0.243835 0.239105,-0.847855 0.689651,-1.03447c0.318588,-0.131958 0.445831,-0.101013 0.689651,-0.344833c0.243835,-0.243835 0.212875,-0.715897 0.344833,-1.034485c0.18663,-0.450531 0.557693,-0.715897 0.689651,-1.034485c0.18663,-0.450531 0.100998,-0.445816 0.344833,-0.689651c0.24382,-0.24382 0.445816,-0.100998 0.689651,-0.344833c0.24382,-0.24382 0.212875,-0.715897 0.344833,-1.03447c0.186615,-0.450531 0.749329,-0.983704 1.03447,-1.379318c0.450836,-0.625519 0.689651,-0.689651 1.034485,-1.034485c0.344833,-0.344833 0.344818,-0.689651 0.689651,-1.034485c0.344833,-0.344833 0.202011,-0.546814 0.689667,-1.03447c0.24382,-0.24382 0.445816,-0.100998 0.689651,-0.344833c0.243835,-0.243835 0.344818,-0.689651 0.689651,-1.034485c0.344833,-0.344833 0.689651,-0.689651 1.034485,-1.034485c0.344833,-0.344818 0.847855,-0.583939 1.034485,-1.03447c0.131958,-0.318588 0.557693,-0.371078 0.689651,-0.689667c0.18663,-0.450531 0.689667,-0.689636 1.379318,-1.379303c0.344818,-0.344833 0.689651,-0.689651 1.03447,-1.034485c0.344833,-0.344833 0.689667,-0.689651 1.034485,-1.034485c0,0 0.101013,-0.100998 0.344833,-0.344818c0.24382,-0.24382 0.715897,-0.212875 1.034485,-0.344833c0.450531,-0.18663 0.445816,-0.933487 0.689651,-0.689651c0.24382,0.24382 0,0.344818 0,0.689651c0,0 0,0 0,0.344833c0,0.344818 -0.24382,0.790649 0,1.03447c0.243835,0.243835 0.344833,0.344833 0.344833,0.689667c0,0.344818 0,0.689651 0,1.379303c0,0.344833 0,0.689651 0,1.034485c0,0.344833 0,0.689651 0,1.034485c0,0.344818 -0.100998,0.445816 -0.344833,0.689651c-0.243835,0.243835 0,0.689651 0,1.034485c0,0.344818 0.243835,0.445816 0,0.689651c-0.243835,0.243835 -0.344833,0.344833 -0.344833,0.689651c0,0.344833 -0.344818,0.689651 -0.344818,1.034485c0,0.344833 0.243835,0.790649 0,1.034485c-0.243835,0.243835 -0.344833,0.344833 -0.344833,0.689651c0,0.689651 0,1.034485 0,1.379318c0,0.344818 0,0.689651 0,1.03447c0,0.344833 0,0.344833 0,0.689667c0,0 0,0.344818 0,0.689651c0,0.344833 0,0.689651 0,1.034485c0,0.344818 0,0.689651 0,1.034485c0,0.344833 0,0.689651 0,1.379318c0,0.344818 0,0.689636 0,1.034454c0,0.344849 0,0.689667 0,0.689667c0,0.344818 0,0.689667 0,1.034485c0,0.344818 -0.131958,0.715912 0,1.034485c0.18663,0.450531 0.344833,0.689667 0.344833,1.034485c0,0.344818 0.100998,0.445801 0.344818,0.689636c0.243851,0.243835 0,0.689667 0,1.034485c0,0.344849 0,0.344849 0,0.689667c0,0.344818 0,0.689667 0,1.034485c0,0.344818 0,0.689667 0,1.034485c0,0.344818 0,0.689636 0,1.034485c0,0.344818 0,0.689636 0,1.034485c0,0.344818 0,0.689636 0,1.034485c0,0 0,0.344818 0,0.689636c0,0.344849 0,0.689667 0,1.379303c0,0.344849 0,0.689667 0,1.034485c0,0.344849 0,0.689667 0,1.034485c0,0.344849 0,0.689667 0,1.034485c0,0.344849 0.100998,0.445831 0.344833,0.689667c0.48764,0.48764 0,1.034485 0,1.379303c0,0.344818 -0.131958,0.715912 0,1.034485c0.18663,0.450531 0.445831,0.445831 0.689651,0.689667c0.24382,0.243835 0,0.344818 0,0.689636c0,0.344818 0.158203,0.583954 0.344833,1.034485c0.263931,0.637177 0.100998,0.790649 0.344818,1.034485c0.487671,0.487671 0.344833,1.034485 0.344833,1.379303c0,0.344849 -0.131958,0.715912 0,1.034485c0.18663,0.450531 0.344833,0.689667 0.344833,1.034485c0,0.344818 0.100998,0.445831 0.344818,0.689667c0.24382,0.243835 0.158218,0.583923 0.344833,1.034485c0.131958,0.318573 -0.131973,0.715881 0,1.034485c0.186615,0.450531 0.503021,0.583923 0.689651,1.034454c0.131973,0.318604 0,0.689667 0,0.689667c0,0.344818 -0.24382,0.790649 0,1.034485c0.243835,0.243835 0.344833,0.344818 0.344833,0.689667c0,0.344818 0.100998,0.445801 0.344818,0.689636c0.243851,0.243835 0.344833,0.344849 0.344833,0.689667c0,0.344818 -0.131973,0.715881 0,1.034485c0.18663,0.450531 0.344833,0.344818 0.344833,0.344818c0,0.344818 0,0.689667 0.344818,0.689667c0.344833,0 0.101013,0.100983 0.344833,0.344818c0.24382,0.243835 0.445816,-0.100983 0.689651,-0.344818c0.243851,-0.243835 0,-0.344849 0,-0.689667c0,0 0.158218,-0.239105 0.344833,-0.689667c0.131958,-0.318573 -0.24382,-0.790619 0,-1.034454c0.24382,-0.243835 0.689651,-0.344849 0.689651,-0.689667c0,-0.344818 0.344818,-0.344818 0.344818,-0.689667c0,-0.344818 0,-0.689636 0,-1.034485c0,-0.689636 0.344833,-1.034485 0.344833,-1.379303c0,-0.344818 0,-0.689636 0,-1.034485c0,-0.344818 0.344833,-0.344818 0.344833,-0.689636c0,-0.344849 0.344818,-0.344849 0.344818,-0.689667c0,0 0,0 0,-0.344818c0,-0.344849 0.100998,-0.445831 0.344833,-0.689667c0.24382,-0.243835 0.158203,-0.583954 0.344833,-1.034485c0.131958,-0.318573 0.167664,-0.628876 0.344818,-1.379303c0.079224,-0.335602 0.26561,-0.698883 0.344833,-1.034485c0.177155,-0.750427 0.689651,-0.689667 0.689651,-1.034485c0,-0.689667 0.512497,-0.973724 0.689651,-1.724121c0.079224,-0.335632 0.100998,-0.445831 0.344833,-0.689667c0.24382,-0.243835 0,-0.689667 0.344818,-1.034485c0.344833,-0.344818 0.503036,-0.583954 0.689667,-1.034485c0.131958,-0.318573 0,-0.689636 0,-0.689636c0.344818,0 0.344818,-0.344849 0.344818,-0.344849c0.344833,-0.689636 0.557678,-0.715881 0.689651,-1.034485c0.18663,-0.450531 0.239105,-0.847839 0.689667,-1.034485c0.318573,-0.131958 0.503021,-0.239105 0.689651,-0.689636c0.131973,-0.318604 0.371078,-0.557709 0.689651,-0.689667c0.450531,-0.186615 0.239105,-0.847839 0.689651,-1.034485c0.318588,-0.131958 0.583954,-0.503021 1.034485,-0.689636c0.318588,-0.131958 0.62912,-0.033783 1.034485,-0.689667c0.18129,-0.293304 0.344818,-0.344818 0.689651,-0.689667c0.344818,-0.344818 0.63887,-0.749329 1.034485,-1.034485c0.625504,-0.450867 1.192688,-0.583923 1.379318,-1.034454c0.131973,-0.318604 0.344818,-0.344849 0.689651,-0.689667c0.344818,-0.344818 0.84787,-0.239105 1.034485,-0.689667c0.131958,-0.318573 0.583923,-0.847839 1.034485,-1.034485c0.318573,-0.131958 0.344818,-0.344818 0.344818,-0.344818c0.344818,-0.344818 0.445831,-0.445831 0.689667,-0.689667c0.243835,-0.243835 0.239105,-0.503021 0.689636,-0.689636c0.318604,-0.131958 0.445831,-0.445831 0.689667,-0.689667c0.243835,-0.243835 0.344818,0.344849 0.344818,0.344849c0,0.344818 0,0.689636 0,1.034454c0,0.344849 0,0.689667 0,1.034485c0,0.689667 0,1.034485 0,1.379333c0,0.689636 0,1.034485 0,1.379303c0,0.344818 0,0.689636 0,1.034485c0,0.344818 0,0.689636 0,1.379303c0,0.344818 0.243835,0.790649 0,1.034485c-0.243835,0.243835 -0.344818,0.344818 -0.344818,0.689667c0,0.689636 0,1.034454 0,1.379303c0,0.344818 0,0.689636 0,1.034485c0,0.344818 0,0.689636 0,1.034485c0,0.344818 0,0.689636 0,1.034485c0,0.344818 0,0.344818 0,1.034454c0,0.344849 0,0.689667 0,1.034485c0,0.344849 0,0.689667 0,1.379333c0,0.344818 0,0.689636 0,1.034454c0,0.344849 0,0.689667 0,1.034485c0,0.344849 0,0.689667 0,1.034485c0,0.344849 0,0.689667 0,1.034485c0,0.344849 0.243835,0.790649 0,1.034485c-0.243835,0.243835 -0.344818,0.344818 -0.344818,0.689667c0,0.344818 0,0.689636 0,1.379303c0,0.344818 0,0.689667 0,1.034485c0,0 0,0 0,0.344818c0,0.344849 0,0.689667 0,1.034485c0,0.344818 0,0.689667 0,1.034485c0,0.344818 0,0.689667 0,1.379303c0,0.344849 0,0.689667 0,1.034485c0,0.344849 0,0.689667 0,0.689667c0,0.344818 -0.243835,0.790649 0,1.034485c0.243835,0.243835 0.445801,0.100983 0.689636,0.344818c0.243835,0.243835 0.344849,0.344818 0.344849,0.689667c0,0.344818 0.344818,0.344818 0.344818,0.689636c0,0.344849 0,0.689667 0,0.689667l0.344818,0.344818" id="svg_10" fill-opacity="null" stroke-opacity="null" stroke-width="10" stroke="#000" fill="none"/>
<path d="m278.275776,293.604504c0,0 0,-0.689667 0,-1.034485c0,-0.689667 0.344818,-1.034485 0.344818,-1.724152c0,-0.344818 -0.243835,-0.790649 0,-1.034485c0.243835,-0.243835 0.344849,-0.344818 0.344849,-0.689636c0,-0.344849 0.21286,-0.715912 0.344818,-1.034485c0.186615,-0.450562 0.344818,-0.344849 0.344818,-0.689667c0,-0.344818 0,-0.689636 0,-1.034485c0,-0.344818 0,-0.689636 0,-1.034485c0,-0.344818 -0.263947,-0.742126 0,-1.379303c0.186646,-0.450531 0.344849,-0.689667 0.344849,-1.034485c0,-0.344818 0,-0.689636 0,-1.034485c0,-0.344818 0,-0.689636 0,-1.034485c0,-0.344818 0,-0.689636 0,-1.034485c0,-0.344818 0,-0.689636 0,-1.034485c0,-0.344818 0,-0.344818 0,-0.689636c0,0 0,-0.344818 0,-0.689667c0,-0.344818 0,-0.689636 0,-1.034485c0,-0.344818 0,-0.689636 0,-1.034485c0,-0.344818 0,-0.689636 0,-1.034454c0,-0.689667 0,-1.034485 0,-1.379333c0,-0.344818 0,-1.034485 0,-1.379303c0,-0.689667 0,-1.034485 0,-1.379303c0,-0.689667 0,-1.034485 0,-1.379303c0,-0.344849 0,-0.689667 0,-1.034485c0,-0.689667 0,-1.034485 0,-1.379333c0,-0.344818 0,-0.689636 0,-1.034454c0,-0.344849 -0.344849,-0.344849 -0.344849,-0.689667c0,-0.344818 0,-0.689667 0,-1.034485c0,-0.344818 0,-0.344818 0,-0.689667c0,-0.344818 -0.344818,-0.344818 -0.344818,-0.689636c0,-0.344849 -0.100983,-0.445831 -0.344818,-0.689667c-0.48764,-0.48764 0,-0.689636 0,-0.689636c0,-0.344849 0,-0.344849 0,-0.344849c0,0 0.100983,-0.243835 0.344818,0c0.243835,0.243835 0.100983,0.790649 0.344818,1.034485c0.243835,0.243835 0.445831,0.100983 0.689667,0.344818c0.243835,0.243835 0.100983,0.790649 0.344818,1.034485c0.243835,0.243835 0.371094,0.212891 0.689667,0.344849c0.450531,0.186615 0.344818,0.344818 0.344818,0.344818c0,0.344818 0.344849,0.344818 0.344849,0.689667c0,0.344818 0.344818,0.344818 0.689636,0.689636c0.344818,0.344849 0.445831,0.445831 0.689667,0.689667c0.243835,0.243835 0.40451,0.294037 0.689636,0.689636c0.450867,0.625519 0.371094,0.902527 0.689667,1.034485c0.450531,0.186646 0.790649,0.445831 1.034485,0.689667c0.243835,0.243835 0.371063,0.557709 0.689667,0.689667c0.450531,0.186615 0.445801,0.445801 0.689636,0.689636c0.243835,0.243835 0.100983,0.445831 0.344818,0.689667c0.243835,0.243835 0.344849,0.344818 0.344849,0.344818c0.344818,0 0.445801,0.100983 0.689636,0.344818c0.243835,0.243835 0.557709,0.371094 0.689667,0.689667c0.186615,0.450531 0.583954,0.84787 1.034485,1.034485c0.318573,0.131958 0.790649,0.100983 1.034485,0.344818c0.243835,0.243835 0.163544,0.74115 0.344818,1.034485c0.405365,0.655914 0.689667,0.689667 1.034485,1.034485c0.344818,0.344818 0.84787,0.583954 1.034485,1.034485c0.131958,0.318573 0.21283,0.371063 0.344818,0.689667c0.186646,0.450531 -0.142822,0.891632 0.344849,1.379303c0.243835,0.243835 0.100983,0.445801 0.344818,0.689636c0.243835,0.243835 0.503021,0.239136 0.689667,0.689667c0.263947,0.637177 0.100983,0.790649 0.344818,1.034485c0.243835,0.243835 0.344818,0.344818 0.689636,0.344818c0,0 0,0.689667 0,1.034485c0,0.344849 0.344849,0.344849 0.344849,0.689667c0,0.344818 0.344818,0.344818 0.344818,0.689636c0,0.344849 0.100983,0.790649 0.344818,1.034485c0.243835,0.243835 0.101013,0.445831 0.344849,0.689667c0.243835,0.243835 0.100983,0.445831 0.344818,0.689667c0.243835,0.243835 0,0.689636 0,1.034485c0,0.344818 0.344818,0.344818 0.344818,0.689636c0,0.344818 0.344849,0.344818 0.344849,0.689667c0,0.344818 0,1.034485 0,1.034485c0,0.344818 0.344818,0.344818 0.344818,0.344818c0,0.344818 0,0.689667 0,1.034485c0,0.344818 0.344818,0.689667 0.344818,1.034485c0,0.344818 0,0.689636 0,1.034485c0,0.344818 0,0.689636 0,1.034485c0,0 0.344849,0 0.344849,-0.344849c0,-0.344818 0.100983,-0.445801 0.344818,-0.689636c0.243835,-0.243835 0,-0.689667 0,-1.034485c0,-0.344818 0.100983,-0.445831 0.344818,-0.689667c0.243835,-0.243835 0.100983,-0.445801 0.344818,-0.689636c0.243835,-0.243835 0,-0.344849 0,-0.689667c0,0 0,-0.344818 0,-0.689667c0,-0.344818 0.101013,-0.445801 0.344849,-0.689636c0.243835,-0.243835 0,-0.689667 0,-1.034485c0,-0.344818 -0.131958,-1.06073 0,-1.379303c0.186615,-0.450562 0.344818,-0.689667 0.344818,-1.034485c0,0 0,0 0,0c0.344818,-0.344849 0.689667,-1.034485 0.689667,-1.379333c0,-0.344818 0.100983,-0.790619 0.344818,-1.034454c0.243835,-0.243835 0.21286,-0.371094 0.344818,-0.689667c0.186646,-0.450531 0.445831,-0.445831 0.689667,-0.689667c0.243835,-0.243835 -0.142822,-1.236481 0.344818,-1.724121c0.243835,-0.243835 0.344849,-0.344849 0.689667,-0.689667c0.344818,-0.344818 0.344818,-0.344818 0.344818,-0.689636c0,-0.689667 0.344818,-0.689667 0.344818,-1.034485c0,-0.344849 0.344849,-0.344849 0.344849,-0.689667c0,-0.344818 0.158203,-0.928772 0.344818,-1.379303c0.131958,-0.318573 -0.131958,-0.715912 0,-1.034485c0.186615,-0.450531 0.344818,-0.689667 0.344818,-1.034485c0,-0.344818 0,-0.689667 0,-1.034485c0,-0.344818 0,-0.689667 0,-1.034485c0,0 0,-0.344818 0,-0.689636c0,-0.344849 0.344849,-0.689667 0.344849,-1.379333c0,-0.344818 0,-0.689636 0,-1.034485c0,-0.344818 0,-0.689636 0,-1.034485c0,-0.344818 0,-0.689636 0,-1.379303c0,-0.344818 -0.080933,-0.742126 -0.344849,-1.379303c-0.186615,-0.450531 -0.344818,-0.689667 -0.344818,-1.724152c0,-0.344818 0,-0.689636 0,-1.379303c0,-0.344818 0,-0.689636 0,-1.034485c0,-0.344818 0,-1.034485 0,-1.379303c0,0 0,-0.344818 0,-0.689667c0,-0.344818 0.344818,-0.689636 0.344818,-1.379303c0,-0.344818 0,-0.689636 0,-1.03447c0,-0.344833 0,-0.689667 0,-1.034485c0,-0.344833 0,-0.689651 0,-1.379318c0,-0.689651 0,-1.034485 0,-1.379303c0,-0.689651 0,-1.379318 0,-1.724136c0,-0.344833 0,-0.689651 0,-1.034485c0,-0.689651 0,-1.034485 0,-1.379318c0,-0.344818 0,-1.03447 0,-1.379303c0,-0.344833 0,-1.034485 0,-1.034485c0,-0.344818 0,-0.344818 0,-0.689651c0,-0.344833 0,-0.689651 0,-1.034485c0,-0.344818 0,-0.689651 0,-1.034485c0,-0.344818 0,-0.689651 0,-1.034485c0,-0.689651 0,-1.03447 0,-1.724136c0,-0.344818 0,-0.689651 0,-1.03447c0,-0.344833 0.101013,-0.588684 0.344849,-0.344833c0.243835,0.243835 0,0.689651 0.344818,0.689651c0.344818,0 0.445831,0.445831 0.689667,0.689651c0.243835,0.24382 0.344818,0.344849 0.689636,0.689667c0.344849,0.344833 0.689667,0.344818 0.689667,0.689651c0,0 0,0.344818 0,0.344818c0.344818,0 0.239105,0.503036 0.689636,0.689667c0.318604,0.131973 0.344849,0.344818 0.689667,0.689651c0.344818,0.344833 0.583954,0.847855 1.034485,1.034485c0.318573,0.131958 0.100983,0.445816 0.344818,0.689651c0.243835,0.243851 0.445831,0.445831 0.689667,0.689651c0.243835,0.243835 0.503021,0.583923 0.689667,1.034485c0.131958,0.318588 0.100983,0.445831 0.344818,0.689651c0.243835,0.243835 0.026245,0.557693 0.344818,0.689651c0.450531,0.18663 0.445831,0.445816 0.689667,0.689667c0.243835,0.24382 0.100983,0.445831 0.344818,0.689651c0.243835,0.243835 0.344818,0.344833 0.344818,0.344833c0.344849,0.344818 0.445831,0.445831 0.689667,0.689651c0.243835,0.24382 0,0.689651 0.344818,0.689651c0.344849,0 0.445831,0.101013 0.689667,0.344833c0.243835,0.24382 0.100983,0.790649 0.344818,1.03447c0.243835,0.24382 0.344818,0.344833 0.689667,0.344833c0.344818,0 0.100983,0.445831 0.344818,0.689651c0.243835,0.24382 0.445831,0.100983 0.689667,0.344833c0.243835,0.243835 0.080902,0.397324 0.344818,1.034485c0.186615,0.450531 0.445831,0.790649 0.689667,1.034485c0.243835,0.24382 0.344818,0.344833 0.344818,0.344833c0.344818,0.689636 0.445831,0.445801 0.689667,0.689636c0.243835,0.243835 0.100983,0.790649 0.344818,1.034485c0.243835,0.243835 0.344788,0.344818 0.689636,0.689667c0.344849,0.344849 0.101013,0.790649 0.344849,1.034485c0.243835,0.243835 0.371063,0.21286 0.689636,0.344818c0.450562,0.186615 0.344849,0.689667 0.689667,1.034485c0.344818,0.344818 0.100983,0.790649 0.344818,1.034485c0.243835,0.243835 0.512512,0.284058 0.689667,1.034485c0.079224,0.335602 0.689667,1.034485 1.034485,1.724121c0.344818,0.689667 0.40448,0.983704 0.689636,1.379333c0.450836,0.625519 0.778107,0.964478 1.034485,1.379303c0.573273,0.927612 0.84787,1.618408 1.034485,2.06897c0.131958,0.318573 0.689667,0.689636 0.689667,1.034485c0,0.344818 0.344818,0.344818 0.344818,0.689636c0,0 0.158203,0.239105 0.344849,0.689667c0.131958,0.318573 0.503021,0.583923 0.689636,1.034485c0.131958,0.318573 -0.106049,0.753784 0.344818,1.379303c0.285156,0.395599 0.445831,0.790649 0.689667,1.034485c0.243835,0.243835 -0.131958,0.715881 0,1.034485c0.186615,0.450531 0.425781,1.086975 0.689667,1.724121c0.186615,0.450562 0.689636,0.689667 0.689636,1.034485c0,0.344818 0.344849,1.034485 0.344849,1.379303c0,0.689667 0.503021,0.928772 0.689636,1.379333c0.131958,0.318573 0,0.689636 0,1.379303c0,0.344818 0,0.689636 0,1.034485c0,0.344818 0,0.344818 0,0.689636c0,0 0.158203,0.239136 0.344849,0.689667c0.131958,0.318573 0,0.689667 0,1.379303c0,0.344849 0,0.689667 0,1.034485c0,0.344818 0,0.689667 0,1.034485c0,0.344818 0,0.689667 0,1.034485c0,0.344818 0,0.689667 0,1.034485c0,0.344818 0,0.689667 0,1.034485c0,0.344818 0,0.689636 0,1.034485c0,0.344818 0,0.344818 0,0.344818c0,0.344818 0,0.689667 0,1.034485l0,0" id="svg_11" fill-opacity="null" stroke-opacity="null" stroke-width="10" stroke="#000" fill="none"/>
</g>
</svg>
