<?xml version="1.0" encoding="UTF-8" standalone="no"?>
<!DOCTYPE svg PUBLIC "-//W3C//DTD SVG 1.1//EN" "http://www.w3.org/Graphics/SVG/1.1/DTD/svg11.dtd">
<svg width="100%" height="100%" viewBox="0 0 2481 2549" version="1.1" xmlns="http://www.w3.org/2000/svg" xmlns:xlink="http://www.w3.org/1999/xlink" xml:space="preserve" xmlns:serif="http://www.serif.com/" style="fill-rule:evenodd;clip-rule:evenodd;stroke-linecap:round;stroke-linejoin:round;stroke-miterlimit:1.5;">
    <g id="Évolie" transform="matrix(1,0,0,0.726615,0,0)">
        <rect x="0" y="0" width="2480.32" height="3507.87" style="fill:none;"/>
        <g id="Évolie-face" serif:id="Évolie face" transform="matrix(1.77239,0,0,2.43924,-925.617,-2762.02)">
            <g id="Queue">
                <path d="M1331.45,1922.75C1310.02,1889.81 1294.38,1853.36 1308.72,1818.31C1350.58,1716.02 1430.53,1621.25 1517.72,1554.52C1558.88,1523.02 1606.72,1494.69 1658.87,1487.36C1720.33,1478.73 1785.99,1500.94 1838.05,1532.52C1856.42,1543.67 1885.89,1575.69 1884.95,1598.5C1884.83,1601.41 1883.91,1604.17 1883.12,1606.96C1879.49,1606.07 1875.66,1605.8 1872.12,1605.81C1851.09,1605.92 1836.67,1617.82 1822.55,1632.32C1788.36,1667.42 1779.98,1715.52 1775.68,1762.47C1772.64,1795.67 1771.53,1828.99 1769.6,1862.26C1767.1,1905.32 1761.49,1950.42 1734.42,1985.69C1709.41,2018.27 1668.6,2036.14 1630.29,2048.08C1598.26,2058.05 1564.97,2061.9 1531.51,2062.31" style="fill:rgb(200,150,100);stroke:black;stroke-width:10.34px;"/>
                <path id="fourrureQueue" d="M1455.1,1610.81C1439.11,1628.07 1425.95,1648.95 1419.73,1671.74C1419.76,1676.69 1420.06,1681.86 1420.63,1686.73C1421.21,1691.69 1421.69,1696.83 1422.57,1701.74C1423.05,1704.4 1421.89,1711.29 1424.08,1709.7C1436.47,1700.67 1480.59,1668.46 1497.11,1674.87C1497.21,1674.91 1495,1688.65 1494.89,1689.63C1493.25,1703.68 1493.05,1718.07 1496.22,1731.92C1496.46,1732.97 1498.42,1743.88 1499.26,1743.94C1500.81,1744.06 1507.93,1734.49 1509.34,1733.2C1518.68,1724.69 1529.4,1718.68 1541.41,1714.82C1542.41,1714.5 1554.22,1710.28 1555,1711.19C1556.36,1712.77 1550.93,1730.24 1550.41,1733.39C1547.67,1750.35 1542.73,1776.96 1555.78,1791.46C1556.6,1792.37 1556.63,1789.16 1557.07,1788.02C1557.9,1785.88 1558.9,1783.8 1560.04,1781.81C1563.34,1776.01 1568.27,1770.7 1573.55,1766.64C1583.08,1759.29 1631.94,1737.15 1643.99,1743.03C1644.83,1743.43 1649.76,1783.62 1649.12,1789.45C1648.49,1795.05 1646.65,1800.2 1644.47,1805.37C1644.32,1805.72 1643.69,1806.65 1643.98,1806.4C1665.11,1788.33 1686.06,1772.78 1709.15,1757.08C1715.17,1752.99 1720.18,1747.79 1724.29,1741.82C1725.78,1739.64 1727.09,1737.34 1728.31,1735.02C1728.84,1734.02 1728.85,1731.27 1729.75,1731.95C1731.64,1733.41 1732.19,1748.51 1732.77,1751.24C1737.2,1772.22 1742.16,1796.13 1755.24,1813.59C1756.8,1815.67 1768.64,1829.08 1769.82,1828.65C1771.35,1828.09 1770.37,1820.35 1770.44,1818.82C1770.97,1808.06 1771.13,1797.29 1771.31,1786.52C1772.28,1727.16 1778.27,1667.97 1825.29,1625.97C1833.95,1618.23 1841.84,1609.84 1853.36,1606.61C1859.37,1604.93 1880.28,1605.15 1883.7,1600.97C1887.38,1596.48 1882.77,1587.45 1880.75,1583.12C1873.55,1567.63 1860.61,1552.56 1846.77,1542.66C1811.41,1517.37 1768.61,1500.77 1726.27,1491.87C1696.51,1485.63 1661.8,1486.4 1632.41,1493.75C1585.04,1505.6 1535.44,1535.25 1499.71,1568.3C1484.63,1582.25 1470.56,1597.28 1455.1,1610.81" style="fill:rgb(225,225,200);stroke:black;stroke-width:10.34px;"/>
            </g>
            <g id="Corps">
                <g id="PatteAvantGauche">
                    <path d="M1055.8,2259.01C1053.35,2259.01 1040.99,2264.22 1037.93,2261.16C1033.53,2256.76 1026.53,2259.13 1021.48,2255.44C1014.81,2250.56 1001.78,2247.48 993.599,2245.43C991.258,2244.84 984.501,2246.34 982.875,2244.72C980.013,2241.85 974.997,2239.05 969.361,2239.05C966.981,2239.05 965.772,2235.84 963.638,2234.78C953.133,2229.6 925.063,2222.73 914.079,2228.76C899.697,2236.65 903.173,2239.7 902.985,2256.33C902.965,2258.15 900.64,2273.01 902.762,2273.16C902.775,2273.21 902.788,2273.26 902.8,2273.31C905.438,2283.86 905.864,2313.93 903.515,2324.79C897.689,2351.72 871.407,2349.73 855.311,2366.7C844.424,2378.18 845.454,2394.28 846.135,2408.9C847.012,2427.72 845.109,2447.37 864.562,2457.43C881.923,2466.4 903.031,2463.44 921.911,2464.2C948.505,2465.28 977.555,2463.63 1000.33,2448.26C1022.53,2433.28 1033.16,2407.71 1039.87,2382.75C1050.57,2342.94 1057.85,2299.59 1057.94,2258.3" style="fill:rgb(200,150,100);stroke:black;stroke-width:10.34px;"/>
                </g>
                <path id="PatteArriereDroite" d="M1322.95,2262.04L1349.41,2262.04C1351.02,2262.04 1359.45,2260.64 1360.85,2262.04C1361.11,2262.31 1361.43,2262.76 1361.8,2263.36C1361.83,2262.74 1365.34,2264.28 1365.74,2264.61C1367.96,2266.46 1369.99,2270.06 1371.85,2272.87C1376.69,2280.19 1381.64,2285.54 1385.19,2292.63C1385.6,2293.46 1386.74,2293.66 1387.2,2294.48C1391.57,2302.32 1397.15,2309.67 1402.21,2316.91C1402.22,2316.74 1402.64,2317.24 1402.77,2317.4C1403.18,2317.88 1403.59,2318.31 1404.02,2318.77C1404.67,2319.45 1405.09,2320.2 1405.55,2320.89C1406.07,2321.67 1406.72,2321.73 1407.06,2322.64C1407.35,2323.4 1408.08,2323.62 1408.55,2324.26C1409.43,2325.5 1410.54,2327 1411.36,2328.18C1412.77,2330.19 1413.2,2333.23 1414.77,2334.8C1416.6,2336.63 1416.32,2339.96 1417.2,2342.39C1419.65,2349.2 1422.11,2356.4 1420.01,2363.64C1417.89,2370.9 1411.3,2396.64 1414.97,2404.34C1423,2421.18 1448.37,2430.61 1466.43,2430.61C1468.52,2430.61 1470.22,2430.55 1471.34,2430.29C1480.67,2428.12 1489.38,2421.61 1497.44,2416.89C1500.72,2414.97 1503.44,2410.88 1506.64,2408.57C1511.65,2404.96 1517.45,2403.24 1522.55,2400.05C1524.54,2398.8 1525.57,2396.45 1527.47,2395.08C1528.82,2394.1 1529.93,2394.85 1531.34,2394.43C1532.39,2394.12 1533.36,2392.2 1534.06,2391.41C1536.46,2388.68 1539.19,2386.27 1541.8,2383.76C1553.06,2372.89 1554.53,2359.36 1553.18,2344.36C1551.38,2324.19 1545.1,2304.82 1541.73,2284.92C1540.31,2276.59 1534.85,2268.15 1532.43,2258.47C1530.22,2249.6 1530.78,2239.44 1526.71,2231.3C1525.03,2227.94 1527.29,2222.05 1526,2218.43C1522.97,2209.95 1522.11,2200.5 1521.87,2190.8C1520.73,2190.8 1519.69,2182.57 1520.83,2181.43C1523.68,2178.57 1522.83,2168.43 1523.43,2164.25C1524.33,2157.98 1526.91,2143.68 1530.2,2138.74C1531.7,2136.48 1531.73,2122.34 1532.28,2118.96C1547.75,2023.63 1468.61,1947.08 1385.26,1916.71C1381.99,1915.52 1379.81,1912.6 1376.07,1912.08" style="fill:rgb(200,150,100);stroke:black;stroke-width:10.34px;"/>
                <path id="PatteAvantDroite" d="M1367.56,1922.37C1355.39,1920.84 1337.4,1913.62 1326.82,1907.4C1324.11,1905.81 1322.24,1902.49 1319.04,1901.76C1311.42,1900.01 1301.45,1903.55 1293.51,1903.29C1289.7,1903.17 1268.05,1905.93 1268.48,1909.01C1266.17,1911.77 1264.03,1915.02 1260.51,1917.84C1245.44,1929.89 1225.51,1937.26 1209.04,1947.15C1198.38,1953.54 1185.18,1959.59 1172.57,1963.59C1169.87,1964.45 1168.98,1967.46 1166.14,1968.6C1163.92,1969.48 1150.41,1975.68 1150.41,1975.75C1144.63,1980.41 1137.8,1984.79 1131.06,1989.29C1126.32,1992.44 1124.31,1997.47 1120.33,2001.44C1115.67,2006.1 1113.12,2012.95 1110.32,2015.74C1109.26,2016.8 1103.89,2022.54 1103.89,2020.75C1103.89,2027.41 1096.74,2037.15 1095.31,2045.77C1093.78,2054.93 1095.15,2066.69 1092.22,2075.47C1088.83,2085.66 1082.94,2097.81 1078.86,2108.68C1075.83,2116.77 1077.1,2131.53 1073.86,2138C1064.55,2156.62 1059.62,2184.29 1064.57,2206.63C1067.63,2220.47 1053.52,2230.47 1057.37,2244.6C1058.41,2248.43 1062.07,2251.55 1065.02,2253.94C1072.37,2259.93 1081.37,2264.8 1090.56,2267.2C1102.49,2270.31 1107.17,2264.44 1109.17,2253.18C1109.71,2265.04 1109.6,2276.95 1109.78,2288.81C1110.14,2313.66 1115.48,2338.16 1107.46,2362.49C1101.68,2380.03 1088.41,2393.53 1075.29,2405.94C1065.58,2415.13 1054.8,2424.39 1049.36,2436.91C1042.33,2453.11 1046.76,2475.29 1053.65,2490.79C1056.74,2497.73 1061.19,2504.77 1068.14,2508.34C1076.54,2512.66 1087.15,2512.78 1096.36,2513.4C1105.15,2513.99 1114.55,2516.06 1123.32,2515.33C1137.22,2514.17 1150.76,2507.25 1163.42,2501.79C1179.44,2494.87 1195.3,2487.46 1210.54,2478.94C1218.96,2474.22 1227.46,2469.4 1234.69,2462.93C1248.82,2450.3 1256.69,2432.74 1258.9,2414.09C1260.44,2401.07 1256.37,2387.3 1260.46,2374.65C1265.22,2359.95 1267.61,2344.47 1273.83,2330.26C1280.66,2314.65 1287.15,2298.55 1295.97,2283.93C1296.25,2283.47 1296.53,2283.02 1296.82,2282.57C1295.5,2281.25 1297.78,2279.27 1298.6,2278.31C1305.26,2270.54 1314.32,2265.88 1321.25,2258.48C1326.06,2253.35 1330.33,2247.57 1334.8,2242.13C1343.88,2231.07 1352.74,2219.78 1359.23,2206.96C1364.95,2195.66 1368.82,2183.56 1371.89,2171.3C1373.9,2163.28 1379.19,2156.61 1381.56,2148.72C1383.34,2142.8 1382.8,2136.52 1383.81,2130.47C1384.43,2126.7 1385.58,2123 1386.32,2119.25C1387.69,2112.28 1388.61,2105.22 1389.12,2098.14C1389.24,2096.45 1389.67,2094.76 1389.6,2093.07C1389.26,2084.7 1386.41,2076.48 1384.05,2068.54C1383.09,2065.33 1382.79,2061.93 1381.5,2058.8C1379.9,2054.95 1377.6,2051.52 1375.22,2048.12C1374.28,2046.77 1373.39,2044.7 1372.18,2043.63" style="fill:rgb(200,150,100);stroke:black;stroke-width:10.34px;"/>
            </g>
            <g id="Fourrure">
                <path d="M688.478,1846.53C631.15,1903.86 647.158,1999.85 683.671,2064.14C702.301,2096.95 730.082,2125.67 759.947,2148.45C770.195,2156.26 781.386,2162.42 791.932,2169.76C808.824,2181.51 827.001,2191.49 842.895,2204.65C845.02,2206.41 846.961,2208.33 848.986,2210.2C852.883,2213.79 857.191,2217.12 860.559,2221.24C863.456,2224.78 865.767,2228.8 868.315,2232.59C871.349,2237.1 874.48,2241.56 877.183,2246.29C880.308,2251.75 882.943,2257.47 886.225,2262.85C887.226,2264.49 888.227,2266.14 889.554,2267.54C891.428,2269.52 893.616,2271.21 894.62,2273.83C894.741,2274.15 894.934,2272.75 894.991,2272.49C895.209,2271.5 895.557,2270.54 895.926,2269.6C897.171,2266.4 898.057,2263.59 897.721,2260.12C897.376,2256.55 896.318,2253.06 896.325,2249.45C896.338,2242.91 899.764,2237.14 903.969,2232.36C905.307,2230.84 906.599,2229.25 908.207,2228C912.459,2224.7 917.387,2222.76 922.79,2222.72C922.79,2222.67 922.847,2222.82 922.868,2222.87C922.927,2223 922.975,2223.15 923.015,2223.29C923.127,2223.7 923.168,2224.13 923.189,2224.55C923.329,2227.37 923.787,2230.18 924.585,2232.89C928.837,2247.33 941.627,2256.66 953.211,2265.13C957.36,2268.17 961.956,2271.02 965.579,2274.69C972.273,2281.47 972.731,2291.37 977.578,2299.2C978.646,2300.92 979.806,2302.7 981.271,2304.11C981.528,2304.36 981.947,2304.76 982.36,2304.91C982.444,2298.48 986.091,2293.08 990.302,2288.52C997.129,2281.13 1005,2274.53 1014.51,2270.94C1021.59,2268.28 1028.98,2266.13 1036.25,2264.05C1037.93,2263.57 1039.55,2263.05 1041.13,2262.3C1042.33,2261.73 1043.4,2260.97 1044.64,2260.49C1047.07,2259.54 1049.7,2259.16 1052.02,2257.93C1055.64,2256 1059.43,2254.44 1062.71,2251.92C1074.94,2242.52 1087.15,2233.05 1098.58,2222.67C1105.1,2216.76 1112.24,2210.41 1116.69,2202.71C1124.23,2189.66 1126.51,2173.28 1130.15,2158.82C1131.09,2159.58 1132.05,2160.31 1133,2161.04C1136.38,2163.61 1139.82,2166.21 1142.41,2169.61C1145.97,2174.28 1148.16,2180.43 1150.19,2185.89C1150.9,2187.78 1151.44,2189.6 1151.83,2191.52C1151.83,2191.36 1151.83,2192.34 1151.83,2192.51C1151.83,2193.21 1152.27,2193.66 1152.27,2194.39C1152.27,2196.46 1152.73,2198.28 1152.74,2200.25C1152.75,2203.51 1153.04,2206.71 1152.65,2209.98C1151.64,2218.29 1147.56,2226.4 1143.88,2233.81C1142.11,2237.38 1140.71,2241.18 1137.9,2244.09C1136.08,2245.97 1145.83,2238.26 1147.58,2237.33C1159.17,2231.14 1171.13,2225.53 1182.93,2219.75C1205.64,2208.62 1228.26,2197.18 1249.95,2184.16C1266.26,2174.36 1282.26,2163.62 1296.06,2150.45C1345.17,2103.55 1332.66,2034.91 1322.39,1974.53C1319.94,1960.1 1314.73,1944.16 1314.94,1929.52C1314.95,1929.11 1315.42,1929.08 1315.73,1929.04C1322.38,1928.32 1331.79,1938.85 1336.01,1942.78C1346.15,1952.21 1362.12,1966.34 1364.15,1980.93C1364.2,1981.23 1370.73,1960.54 1370.81,1953.45C1371.04,1933.83 1370.8,1912.77 1364.94,1893.87C1360.82,1880.55 1353.65,1867.59 1347.93,1854.88C1326.14,1806.47 1296.97,1765.98 1238.99,1765.52" style="fill:rgb(225,225,200);stroke:black;stroke-width:10.34px;"/>
            </g>
            <g id="Tête-" serif:id="Tête ">
                <path id="Tete" d="M775.741,1571.52C767.744,1578.8 755.021,1580.72 748.198,1589.14C741.139,1597.85 738.222,1611.2 735.149,1621.7C728.17,1645.54 722.71,1669.8 721.548,1694.64C720.314,1721.03 713.923,1747.59 713.923,1773.95C703.143,1784.73 697.042,1799.18 693.78,1813.88C691.303,1825.04 690.076,1836.61 690.837,1848.03C694.868,1908.57 752.086,1946.16 801.656,1969.88C812.815,1975.22 824.887,1981.1 837.006,1983.86C845.852,1985.88 855.158,1985.1 864.145,1984.94C872.092,1984.8 880.055,1985.26 888.001,1985.44C927.388,1986.31 966.804,1985.79 1006.15,1983.74C1035.73,1982.19 1065.55,1981.77 1094.68,1975.83C1165.09,1961.47 1217.7,1890.22 1228.27,1821.25C1233.34,1788.15 1227.33,1754.94 1226.15,1721.8C1225,1689.13 1228.58,1654.45 1215.36,1623.61C1217.39,1622.14 1229.03,1617.28 1230.72,1616.86C1248.23,1612.54 1263.01,1601.96 1279.95,1596.66C1326.41,1582.13 1365.1,1553.73 1402.38,1523.38C1418.62,1510.15 1436.46,1498.92 1449.25,1481.98C1466.65,1458.94 1482.5,1434.43 1493.4,1407.58C1511.21,1363.74 1514.46,1314.39 1514.53,1267.55C1514.53,1267.32 1514.41,1267.14 1514.19,1267.01C1518.54,1267.01 1506.88,1265.95 1504.71,1265.96C1498.96,1265.96 1493.39,1267.55 1486.78,1267.56C1470.98,1267.59 1444.62,1269.41 1429.2,1274.64C1375.26,1292.94 1320.66,1314.24 1275.16,1349.31C1246.02,1371.77 1221.87,1400.11 1198.95,1428.68C1187.26,1443.25 1177.35,1459.1 1167.01,1474.63C1161.41,1483.04 1154.46,1491.06 1149.98,1500.14C1147.52,1505.13 1143.35,1509.55 1141.03,1514.37C1140.2,1516.07 1136.28,1522.46 1136.28,1522.27C1135.8,1523.64 1135.11,1524.89 1134.06,1525.94C1130.12,1529.88 1123.07,1528.57 1117.73,1528.57C1107.26,1528.57 1087.08,1525.97 1077.7,1529.1C1077.7,1523.94 1072.79,1506.64 1070.32,1501.71C1069.47,1500.01 1067.52,1493.46 1066.11,1492.75C1064.29,1491.84 1062.81,1485.9 1060.31,1485.9C1059.56,1485.9 1059.99,1488.98 1059.79,1489.59C1058.94,1492.13 1056.76,1502.63 1055.57,1503.81C1053.97,1505.41 1037.09,1512.73 1033.97,1509.61C1030.42,1506.05 1035.68,1493.16 1032.39,1488.54C1027.89,1482.19 1027.92,1468.56 1025.02,1464.3C1020.63,1457.88 1016.41,1449.49 1011.32,1442.71C1005.78,1435.32 995.332,1430.71 988.143,1425.32C986.628,1424.19 977.607,1422.84 977.607,1421.11C980.473,1423.97 979.034,1428.94 980.768,1432.17C984.955,1439.98 979.609,1458.4 972.339,1463.25C968.662,1465.7 964.186,1473.54 959.696,1469.05C953.237,1462.59 946.695,1454.46 940.205,1447.97C936.75,1444.52 930.12,1443.76 926.508,1441.13C913.043,1431.3 899.388,1429.54 882.258,1429.54C887.793,1430.58 885.542,1450.14 885.197,1455.06C884.516,1464.75 881.15,1476.98 873.918,1483.97C869.738,1488.01 863.926,1490.23 859.411,1493.92C857.044,1495.86 842.142,1502.75 839.885,1499.12C838.004,1496.1 838.558,1478.01 838.23,1473.37C836.145,1443.91 829.965,1413.64 817.816,1386.61C783.055,1309.28 700.807,1241.07 629.832,1197.9C607.249,1184.17 578.837,1162.53 551.042,1162.53C551.042,1223.31 582.575,1311.97 604.02,1369.95C621.219,1416.45 675.483,1485.52 708.407,1522.37C725.198,1541.17 745.242,1563.62 769.909,1571.84" style="fill:rgb(200,150,100);stroke:black;stroke-width:10.34px;"/>
                <path id="oeilDroit" d="M1028.88,1691.44C1022.41,1697.18 1017.47,1704.48 1012.07,1712.15C1000.42,1733.37 1002.23,1758.51 1003.47,1787.3C1005.15,1826.04 1056.09,1855.45 1085.9,1823.83C1087.01,1822.65 1088.06,1821.43 1089.07,1820.18C1096.41,1804.52 1096.58,1786.91 1098.98,1769.85C1100.76,1757.11 1099.19,1743.62 1096.41,1731.15C1088.13,1694.13 1065.47,1681.35 1028.88,1691.44" style="stroke:black;stroke-width:10.34px;"/>
                <path id="oeilGauche" d="M735.701,1649.52C742.127,1648.62 765.272,1649.08 770.757,1651.83C801.916,1667.42 808.222,1721.24 803.301,1751.57C801.49,1762.74 797.81,1777.96 788.783,1785.77C786.832,1787.46 771.229,1784.75 767.513,1784.52C729.334,1782.21 722.723,1772.17 722.078,1734.92C721.79,1718.3 721.158,1701.66 722.4,1685.05C723.313,1672.84 725.946,1658.15 735.549,1649.54C735.6,1649.54 735.65,1649.53 735.701,1649.52" style="stroke:black;stroke-width:10.34px;"/>
                <path id="intOreilleDroite" d="M1190.05,1582.07C1190.56,1559.5 1189.09,1534.59 1196.49,1512.97C1222.45,1437.04 1303.38,1404.36 1371.73,1375.65C1393.7,1366.42 1415.92,1357.93 1438.48,1350.26C1445.93,1347.73 1458.29,1341.82 1466.3,1342.6C1466.41,1342.61 1466.52,1342.63 1466.62,1342.67C1452.49,1356.03 1449.27,1376.63 1436.39,1390.95C1412.49,1417.53 1411.61,1445.44 1393.33,1472.58C1366.38,1512.57 1296.58,1532.99 1253.1,1552.9C1231.35,1562.86 1213.19,1575.8 1189.55,1582" style="stroke:black;stroke-width:10.34px;"/>
                <path id="intOreilleGauche" d="M622.662,1267.75C638.158,1287.12 645.244,1310.38 648.976,1334.55C657.665,1390.83 702.374,1484.84 754.072,1513.31C768.481,1521.24 786.81,1530.45 795.447,1510.92C806.657,1485.56 791.273,1452.54 781.656,1429.16C752.022,1357.12 699.006,1297.21 624.452,1269.09" style="stroke:black;stroke-width:10.34px;"/>
                <path id="nez" d="M804.234,1804.85C812.887,1803.48 821.668,1802.48 830.417,1802C831.196,1801.95 838.972,1801.79 838.953,1802.29C838.559,1812.34 829.019,1832.06 819.233,1836.54C819.15,1836.58 818.262,1835.39 818.056,1835.13C812.533,1828 809.587,1819.06 806.032,1810.87" style="stroke:black;stroke-width:10.34px;"/>
                <path id="bouche" d="M794.608,1884.82C803.311,1881.42 808.76,1873.61 816.646,1869.74C821.767,1867.23 837.245,1873.8 842.492,1875.15C860.14,1879.71 879.242,1884.18 896.95,1877.3" style="fill:none;stroke:black;stroke-width:10.34px;"/>
                <path id="BlanOeilDroit" d="M1043.94,1692.41C1039.26,1692.78 1034.24,1693.33 1028.88,1693.75C1020.84,1700.13 1012.06,1708.32 1009.88,1718.75C1006.57,1734.64 1018.64,1762.41 1035.31,1767.27C1050.24,1771.63 1078.31,1756.07 1083.42,1741.45C1085.98,1734.12 1085.87,1726.04 1084.56,1718.38C1084.13,1717.96 1083.7,1717.52 1083.26,1717.08C1076.24,1692.37 1062.92,1690.91 1043.94,1692.41" style="fill:white;stroke:black;stroke-width:10.34px;"/>
                <path id="blancOeilGauche" d="M768.81,1735.38C776.746,1730.81 783.541,1726.21 787.399,1717.59C797.293,1695.51 789.134,1671.48 767.375,1660.67C747.568,1650.82 722.676,1656.56 723.927,1682.27C725.798,1720.72 742.474,1738.29 768.81,1735.38" style="fill:white;stroke:black;stroke-width:10.34px;"/>
            </g>
        </g>
    </g>
</svg>
